R Workshops for data Science - 3 Data Manupulation I
…
3.4.2 select() function

We may be interested in some of the columns in the gampminder dataframe, let say, for example, “country” and “pop” variables and discard others; we use the select() function:

library(dplyr)
select(gapminder, "country", "pop")

# A tibble: 1,704 × 2
   country          pop
   <fct>          <int>
 1 Afghanistan  8425333
 2 Afghanistan  9240934
 3 Afghanistan 10267083
 4 Afghanistan 11537966
 5 Afghanistan 13079460
 6 Afghanistan 14880372
 7 Afghanistan 12881816
 8 Afghanistan 13867957
 9 Afghanistan 16317921
10 Afghanistan 22227415
# … with 1,694 more rows
…
The best way to work with R is using a pipe (|>) operator. A pipe operator connect various tasks, for example:

gapminder |>
  select(country, pop)

# A tibble: 1,704 × 2
   country          pop
   <fct>          <int>
 1 Afghanistan  8425333
 2 Afghanistan  9240934
 3 Afghanistan 10267083
 4 Afghanistan 11537966
 5 Afghanistan 13079460
 6 Afghanistan 14880372
 7 Afghanistan 12881816
 8 Afghanistan 13867957
 9 Afghanistan 16317921
10 Afghanistan 22227415
# … with 1,694 more rows

You will see the importance of the pipe operator later when our analysis get complicated. Throught the course, we will use the pipe operator. Also, you will in many textbooks and online resources uses the %>% operator instead. That is because initially, a pipe operator was an external function within the mgttr package, so it was not an built-in R function. In recent years, the base R |> pipe operator has been developed and we will stick to it. But they all do the same thing, so it your preference:

gapminder %>% 
  select(country, pop)

# A tibble: 1,704 × 2
   country          pop
   <fct>          <int>
 1 Afghanistan  8425333
 2 Afghanistan  9240934
 3 Afghanistan 10267083
 4 Afghanistan 11537966
 5 Afghanistan 13079460
 6 Afghanistan 14880372
 7 Afghanistan 12881816
 8 Afghanistan 13867957
 9 Afghanistan 16317921
10 Afghanistan 22227415
# … with 1,694 more rows

Also, notice that we selected “country’ and”pop” columns but did not save them and assigned to an object. To store the results into an object, we have to use assignment operator (<-):

gapminder_selected <- gapminder |>
  select(country, pop)

gapminder_selected # print

# A tibble: 1,704 × 2
   country          pop
   <fct>          <int>
 1 Afghanistan  8425333
 2 Afghanistan  9240934
 3 Afghanistan 10267083
 4 Afghanistan 11537966
 5 Afghanistan 13079460
 6 Afghanistan 14880372
 7 Afghanistan 12881816
 8 Afghanistan 13867957
 9 Afghanistan 16317921
10 Afghanistan 22227415
# … with 1,694 more rows
…
You may be interested in observations that meet certain conditions. We use filter() function to return the list that meet our conditions. Let us “continent” variable in gapminder dataframe. Get a basic table first:

table(gapminder$continent)

  Africa Americas     Asia   Europe  Oceania 
     624      300      396      360       24 

There are five continents. Let us filter only observations from the Africa continent:

africa_gapminder <- gapminder |> 
  filter(continent == "Africa")

africa_gapminder  # print 

# A tibble: 624 × 6
   country continent  year lifeExp      pop gdpPercap
   <fct>   <fct>     <int>   <dbl>    <int>     <dbl>
 1 Algeria Africa     1952    43.1  9279525     2449.
 2 Algeria Africa     1957    45.7 10270856     3014.
 3 Algeria Africa     1962    48.3 11000948     2551.
 4 Algeria Africa     1967    51.4 12760499     3247.
 5 Algeria Africa     1972    54.5 14760787     4183.
 6 Algeria Africa     1977    58.0 17152804     4910.
 7 Algeria Africa     1982    61.4 20033753     5745.
 8 Algeria Africa     1987    65.8 23254956     5681.
 9 Algeria Africa     1992    67.7 26298373     5023.
10 Algeria Africa     1997    69.2 29072015     4797.
# … with 614 more rows
…
Let us filter a numeric vector; for example, we may want to filter countries with population of above 50 million and assign results to an object named high_pop:

high_pop <- gapminder |> 
  filter(pop > 50000000)

high_pop

# A tibble: 190 × 6
   country    continent  year lifeExp       pop gdpPercap
   <fct>      <fct>     <int>   <dbl>     <int>     <dbl>
 1 Bangladesh Asia       1957    39.3  51365468      662.
 2 Bangladesh Asia       1962    41.2  56839289      686.
 3 Bangladesh Asia       1967    43.5  62821884      721.
 4 Bangladesh Asia       1972    45.3  70759295      630.
 5 Bangladesh Asia       1977    46.9  80428306      660.
 6 Bangladesh Asia       1982    50.0  93074406      677.
 7 Bangladesh Asia       1987    52.8 103764241      752.
 8 Bangladesh Asia       1992    56.0 113704579      838.
 9 Bangladesh Asia       1997    59.4 123315288      973.
10 Bangladesh Asia       2002    62.0 135656790     1136.
# … with 180 more rows
…
3.4.4 arrange() function

arrange() function sort values in ascending or descending order; the default is ascending:

gapminder |> 
  arrange(lifeExp)

# A tibble: 1,704 × 6
   country      continent  year lifeExp     pop gdpPercap
   <fct>        <fct>     <int>   <dbl>   <int>     <dbl>
 1 Rwanda       Africa     1992    23.6 7290203      737.
 2 Afghanistan  Asia       1952    28.8 8425333      779.
 3 Gambia       Africa     1952    30    284320      485.
 4 Angola       Africa     1952    30.0 4232095     3521.
 5 Sierra Leone Africa     1952    30.3 2143249      880.
 6 Afghanistan  Asia       1957    30.3 9240934      821.
 7 Cambodia     Asia       1977    31.2 6978607      525.
 8 Mozambique   Africa     1952    31.3 6446316      469.
 9 Sierra Leone Africa     1957    31.6 2295678     1004.
10 Burkina Faso Africa     1952    32.0 4469979      543.
# … with 1,694 more rows

Here we have sorted lifeExp column in ascending order; to arrange in descending order, you have to use desc() function within arrange():

gapminder |> 
  arrange(desc(lifeExp))

# A tibble: 1,704 × 6
   country          continent  year lifeExp       pop gdpPercap
   <fct>            <fct>     <int>   <dbl>     <int>     <dbl>
 1 Japan            Asia       2007    82.6 127467972    31656.
 2 Hong Kong, China Asia       2007    82.2   6980412    39725.
 3 Japan            Asia       2002    82   127065841    28605.
 4 Iceland          Europe     2007    81.8    301931    36181.
 5 Switzerland      Europe     2007    81.7   7554661    37506.
 6 Hong Kong, China Asia       2002    81.5   6762476    30209.
 7 Australia        Oceania    2007    81.2  20434176    34435.
 8 Spain            Europe     2007    80.9  40448191    28821.
 9 Sweden           Europe     2007    80.9   9031088    33860.
10 Israel           Asia       2007    80.7   6426679    25523.
# … with 1,694 more rows
…
3.4.6 mutate()

Suppose we want to create a new column in the dataframe, using existing columns. The mutate() function is useful here. Consider the gdpPercap column/variable; from your basic school economics or general knowledge, you know that a GDP is total value of goods and services produced within a country, and is used to measure the economy. We also know that the GDP per capita is calculated by dividing GDP by the population, so it is GDP per person. In gapminder dataframe, there are gdpPercap and pop, which we can use to calculate GDP of a country; we will use mutate() for this:

gapminder_2007 <- gapminder_2007 |> 
  mutate(gdp = gdpPercap * pop)

# print the results

gapminder_2007

# A tibble: 142 × 7
   country     continent  year lifeExp       pop gdpPercap           gdp
   <fct>       <fct>     <int>   <dbl>     <int>     <dbl>         <dbl>
 1 Afghanistan Asia       2007    43.8  31889923      975.  31079291949.
 2 Albania     Europe     2007    76.4   3600523     5937.  21376411360.
 3 Algeria     Africa     2007    72.3  33333216     6223. 207444851958.
 4 Angola      Africa     2007    42.7  12420476     4797.  59583895818.
 5 Argentina   Americas   2007    75.3  40301927    12779. 515033625357.
 6 Australia   Oceania    2007    81.2  20434176    34435. 703658358894.
 7 Austria     Europe     2007    79.8   8199783    36126. 296229400691.
 8 Bahrain     Asia       2007    75.6    708573    29796.  21112675360.
 9 Bangladesh  Asia       2007    64.1 150448339     1391. 209311822134.
10 Belgium     Europe     2007    79.4  10392226    33693. 350141166520.
# … with 132 more rows
…
